Price index data for the US economy • realtalk
…
Loading the data

realtalk is mostly a data package and includes several datasets of common US price indexes, like the CPI-U-RS:

library(realtalk)
cpi_u_rs_annual
#> # A tibble: 46 × 2
#>     year cpi_u_rs
#>    <dbl>    <dbl>
#>  1  1978     104.
#>  2  1979     114.
#>  3  1980     127.
#>  4  1981     139.
#>  5  1982     148.
#>  6  1983     154.
#>  7  1984     160.
#>  8  1985     166.
#>  9  1986     168.
#> 10  1987     174.
#> # ℹ 36 more rows
…
The package_data_name column contains the internal name of each dataset:

pce_monthly_sa
#> # A tibble: 791 × 3
#>     year month   pce
#>    <dbl> <dbl> <dbl>
#>  1  1959     1  15.2
#>  2  1959     2  15.2
#>  3  1959     3  15.2
#>  4  1959     4  15.2
#>  5  1959     5  15.2
#>  6  1959     6  15.3
#>  7  1959     7  15.3
#>  8  1959     8  15.3
#>  9  1959     9  15.4
#> 10  1959    10  15.4
#> # ℹ 781 more rows

You can also use get_price_index():

get_price_index("PCE", "monthly", "SA")
#> # A tibble: 791 × 3
#>     year month   pce
#>    <dbl> <dbl> <dbl>
#>  1  1959     1  15.2
#>  2  1959     2  15.2
#>  3  1959     3  15.2
#>  4  1959     4  15.2
#>  5  1959     5  15.2
#>  6  1959     6  15.3
#>  7  1959     7  15.3
#>  8  1959     8  15.3
#>  9  1959     9  15.4
#> 10  1959    10  15.4
#> # ℹ 781 more rows
…
