…
realtalk makes it easy to use common US price indexes in your data
analysis.

<img src="man/figures/README-unnamed-chunk-2-1.png" width="100%" />

## Loading the data

`realtalk` is mostly a data package and includes several datasets of
common US price indexes, like the CPI-U-RS

``` r
library(realtalk)
cpi_u_rs_annual
#> # A tibble: 45 × 2
#>     year cpi_u_rs
#>    <dbl>    <dbl>
#>  1  1978     104.
#>  2  1979     114.
#>  3  1980     127.
#>  4  1981     139.
#>  5  1982     148.
#>  6  1983     154.
#>  7  1984     160.
#>  8  1985     166.
#>  9  1986     168.
#> 10  1987     174.
#> # ℹ 35 more rows
```
…
The `package_data_name` column contains the internal name of each
dataset:

``` r
pce_monthly_sa
#> # A tibble: 772 × 3
#>     year month   pce
#>    <dbl> <dbl> <dbl>
#>  1  1959     1  16.0
#>  2  1959     2  16.1
#>  3  1959     3  16.1
#>  4  1959     4  16.1
#>  5  1959     5  16.1
#>  6  1959     6  16.2
#>  7  1959     7  16.2
#>  8  1959     8  16.2
#>  9  1959     9  16.3
#> 10  1959    10  16.3
#> # ℹ 762 more rows
```
…
