Extended Chained Consumer Price Index for Urban Consumers (C-CPI-U) — c_cpi_u_extended • realtalk
…
    The seasonal adjustment in c_cpi_u_extended_monthly_sa is simply
a multiplication of the non-seasonally adjusted
c_cpi_u_extended_monthly_nsa values by the ratio of the
cpi_u_monthly_sa to cpi_u_monthly_nsa.
The quarterly c_cpi_u_extended_quarterly_nsa and c_cpi_u_extended_quarterly_sa
series are the quarterly means of their respective monthly series.

For annual statistics, the U.S. Census Bureau currently uses a similar
combination of price indexes to extend the C-CPI-U:
https://www.census.gov/topics/income-poverty/income/guidance/current-vs-constant-dollars.html.

    Examples

c_cpi_u_extended_annual
#> # A tibble: 88 × 2
#>     year c_cpi_u_extended
#>    <dbl>            <dbl>
#>  1  1937              9.8
#>  2  1938              9.6
#>  3  1939              9.5
#>  4  1940              9.5
#>  5  1941             10  
#>  6  1942             11.1
#>  7  1943             11.8
#>  8  1944             12  
#>  9  1945             12.3
#> 10  1946             13.3
#> # ℹ 78 more rows
…
