…
For months where CPI data was not published (e.g., October 2025), the
monthly extended series values are linearly interpolated from the
adjacent months' values. The quarterly series are then computed as usual
from the monthly values including any interpolated months.

For annual statistics, the U.S. Census Bureau currently uses a similar
combination of price indexes to extend the C-CPI-U:
<https://www.census.gov/topics/income-poverty/income/guidance/current-vs-constant-dollars.html>.

## Examples

``` r
c_cpi_u_extended_annual
#> # A tibble: 89 × 2
#>     year c_cpi_u_extended
#>    <dbl>            <dbl>
#>  1  1937              9.8
#>  2  1938              9.6
#>  3  1939              9.5
#>  4  1940              9.5
#>  5  1941             10  
#>  6  1942             11.1
#>  7  1943             11.8
#>  8  1944             12  
#>  9  1945             12.3
#> 10  1946             13.3
#> # ℹ 79 more rows
```
