Consumer Price Index for Urban Consumers Research Series (CPI-U-RS) data — cpi_u_rs • realtalk
…
    Source

    https://www.bls.gov/cpi/research-series/r-cpi-u-rs-home.htm

    See also

    c_cpi_u_extended_annual extends the
CPI-U-RS from 1937 to the present using the c_cpi_u and other series.

    Examples

cpi_u_rs_annual
#> # A tibble: 48 × 2
#>     year cpi_u_rs
#>    <dbl>    <dbl>
#>  1  1978     104.
#>  2  1979     114.
#>  3  1980     127.
#>  4  1981     139.
#>  5  1982     148.
#>  6  1983     154.
#>  7  1984     160.
#>  8  1985     166.
#>  9  1986     168.
#> 10  1987     174.
#> # ℹ 38 more rows
…
