…
[`cpi_u_rs_monthly_nsa`](https://economic.github.io/realtalk/reference/cpi_u_rs.md)
and
[`cpi_u_rs_annual`](https://economic.github.io/realtalk/reference/cpi_u_rs.md)
for the CPI-U-RS, an index that is more consistent over time than the
CPI-U and incorporates more recent improvements to the CPI-U into the
entire time series. The quarterly `cpi_u_quarterly_nsa` and
`cpi_u_quarterly_sa` series are the quarterly means of their respective
monthly series.

## Examples

``` r
cpi_u_monthly_nsa
#> # A tibble: 1,071 × 3
#>     year month cpi_u
#>    <dbl> <dbl> <dbl>
#>  1  1937     1  14.1
#>  2  1937     2  14.1
#>  3  1937     3  14.2
#>  4  1937     4  14.3
#>  5  1937     5  14.4
#>  6  1937     6  14.4
#>  7  1937     7  14.5
#>  8  1937     8  14.5
#>  9  1937     9  14.6
#> 10  1937    10  14.6
#> # ℹ 1,061 more rows
```
